{  
   "gameplay":{
      "gameplayId": 53,
      "whiteUserId": "3606d0f3-5ffc-45b6-ab73-d018065f19a5",
      "blackUserId": "9b302bee-aa2b-4178-a7a6-4d77f9c1c29a"
   },
   "score":{  
      "id":102,
      "movesWhite":1,
      "movesBlack":0,
      "gameplayId":2,
      "isWhiteWinner":null,
      "stalemate":null
   },
   "gameStatus":{  
      "color":null,
      "isStalemate":false,
      "isChessmate":false,
      "isChess":false
   },
   "pieces":[  
      [  
         {  
            "color":"black",
            "moves":[  

            ],
            "movesRules":[  
               {  
                  "x":0,
                  "y":1
               },
               {  
                  "x":0,
                  "y":-1
               },
               {  
                  "x":1,
                  "y":0
               },
               {  
                  "x":-1,
                  "y":0
               }
            ],
            "coordX":0,
            "coordY":0,
            "currentMove":{  
               "x":-1,
               "y":0
            },
            "kingSideBlack":true,
            "queenSideBlack":true,
            "kingSideWhite":true,
            "queenSideWhite":true,
            "id":2,
            "className":"Rook"
         },
         {  
            "color":"black",
            "moves":[  
               {  
                  "x":2,
                  "y":2
               },
               {  
                  "x":0,
                  "y":2
               }
            ],
            "movesRules":[  
               {  
                  "x":1,
                  "y":2
               },
               {  
                  "x":-1,
                  "y":2
               },
               {  
                  "x":1,
                  "y":-2
               },
               {  
                  "x":-1,
                  "y":-2
               },
               {  
                  "x":2,
                  "y":1
               },
               {  
                  "x":-2,
                  "y":1
               },
               {  
                  "x":2,
                  "y":-1
               },
               {  
                  "x":-2,
                  "y":-1
               }
            ],
            "coordX":1,
            "coordY":0,
            "currentMove":{  
               "x":-1,
               "y":-1
            },
            "kingSideBlack":true,
            "queenSideBlack":true,
            "kingSideWhite":true,
            "queenSideWhite":true,
            "id":2,
            "className":"Horse"
         },
         {  
            "color":"black",
            "moves":[  

            ],
            "movesRules":[  
               {  
                  "x":1,
                  "y":1
               },
               {  
                  "x":1,
                  "y":-1
               },
               {  
                  "x":-1,
                  "y":1
               },
               {  
                  "x":-1,
                  "y":-1
               }
            ],
            "coordX":2,
            "coordY":0,
            "currentMove":{  
               "x":1,
               "y":-1
            },
            "kingSideBlack":true,
            "queenSideBlack":true,
            "kingSideWhite":true,
            "queenSideWhite":true,
            "id":2,
            "className":"Bishop"
         },
         {  
            "color":"black",
            "moves":[  

            ],
            "movesRules":[  
               {  
                  "x":1,
                  "y":1
               },
               {  
                  "x":1,
                  "y":-1
               },
               {  
                  "x":-1,
                  "y":1
               },
               {  
                  "x":-1,
                  "y":-1
               },
               {  
                  "x":0,
                  "y":1
               },
               {  
                  "x":0,
                  "y":-1
               },
               {  
                  "x":1,
                  "y":0
               },
               {  
                  "x":-1,
                  "y":0
               }
            ],
            "coordX":3,
            "coordY":0,
            "currentMove":{  
               "x":2,
               "y":0
            },
            "kingSideBlack":true,
            "queenSideBlack":true,
            "kingSideWhite":true,
            "queenSideWhite":true,
            "id":1,
            "className":"Queen"
         },
         {  
            "color":"black",
            "moves":[  

            ],
            "movesRules":[  
               {  
                  "x":1,
                  "y":1
               },
               {  
                  "x":1,
                  "y":-1
               },
               {  
                  "x":-1,
                  "y":1
               },
               {  
                  "x":-1,
                  "y":-1
               },
               {  
                  "x":0,
                  "y":1
               },
               {  
                  "x":0,
                  "y":-1
               },
               {  
                  "x":1,
                  "y":0
               },
               {  
                  "x":-1,
                  "y":0
               }
            ],
            "coordX":4,
            "coordY":0,
            "currentMove":{  
               "x":3,
               "y":0
            },
            "kingSideBlack":true,
            "queenSideBlack":true,
            "kingSideWhite":true,
            "queenSideWhite":true,
            "id":1,
            "isChess":false,
            "isChessmate":false,
            "isStalemate":false,
            "className":"King"
         },
         {  
            "color":"black",
            "moves":[  

            ],
            "movesRules":[  
               {  
                  "x":1,
                  "y":1
               },
               {  
                  "x":1,
                  "y":-1
               },
               {  
                  "x":-1,
                  "y":1
               },
               {  
                  "x":-1,
                  "y":-1
               }
            ],
            "coordX":5,
            "coordY":0,
            "currentMove":{  
               "x":4,
               "y":-1
            },
            "kingSideBlack":true,
            "queenSideBlack":true,
            "kingSideWhite":true,
            "queenSideWhite":true,
            "id":1,
            "className":"Bishop"
         },
         {  
            "color":"black",
            "moves":[  
               {  
                  "x":7,
                  "y":2
               },
               {  
                  "x":5,
                  "y":2
               }
            ],
            "movesRules":[  
               {  
                  "x":1,
                  "y":2
               },
               {  
                  "x":-1,
                  "y":2
               },
               {  
                  "x":1,
                  "y":-2
               },
               {  
                  "x":-1,
                  "y":-2
               },
               {  
                  "x":2,
                  "y":1
               },
               {  
                  "x":-2,
                  "y":1
               },
               {  
                  "x":2,
                  "y":-1
               },
               {  
                  "x":-2,
                  "y":-1
               }
            ],
            "coordX":6,
            "coordY":0,
            "currentMove":{  
               "x":4,
               "y":-1
            },
            "kingSideBlack":true,
            "queenSideBlack":true,
            "kingSideWhite":true,
            "queenSideWhite":true,
            "id":1,
            "className":"Horse"
         },
         {  
            "color":"black",
            "moves":[  

            ],
            "movesRules":[  
               {  
                  "x":0,
                  "y":1
               },
               {  
                  "x":0,
                  "y":-1
               },
               {  
                  "x":1,
                  "y":0
               },
               {  
                  "x":-1,
                  "y":0
               }
            ],
            "coordX":7,
            "coordY":0,
            "currentMove":{  
               "x":6,
               "y":0
            },
            "kingSideBlack":true,
            "queenSideBlack":true,
            "kingSideWhite":true,
            "queenSideWhite":true,
            "id":1,
            "className":"Rook"
         }
      ],
      [  
         {  
            "color":"black",
            "moves":[  
               {  
                  "x":0,
                  "y":2
               },
               {  
                  "x":0,
                  "y":3
               }
            ],
            "movesRules":[  
               {  
                  "x":0,
                  "y":1
               },
               {  
                  "x":0,
                  "y":2
               }
            ],
            "coordX":0,
            "coordY":1,
            "currentMove":{  
               "x":0,
               "y":3
            },
            "kingSideBlack":true,
            "queenSideBlack":true,
            "kingSideWhite":true,
            "queenSideWhite":true,
            "id":8,
            "className":"Pawn"
         },
         {  
            "color":"black",
            "moves":[  
               {  
                  "x":1,
                  "y":2
               },
               {  
                  "x":1,
                  "y":3
               }
            ],
            "movesRules":[  
               {  
                  "x":0,
                  "y":1
               },
               {  
                  "x":0,
                  "y":2
               }
            ],
            "coordX":1,
            "coordY":1,
            "currentMove":{  
               "x":1,
               "y":3
            },
            "kingSideBlack":true,
            "queenSideBlack":true,
            "kingSideWhite":true,
            "queenSideWhite":true,
            "id":7,
            "className":"Pawn"
         },
         {  
            "color":"black",
            "moves":[  
               {  
                  "x":2,
                  "y":2
               },
               {  
                  "x":2,
                  "y":3
               }
            ],
            "movesRules":[  
               {  
                  "x":0,
                  "y":1
               },
               {  
                  "x":0,
                  "y":2
               }
            ],
            "coordX":2,
            "coordY":1,
            "currentMove":{  
               "x":2,
               "y":3
            },
            "kingSideBlack":true,
            "queenSideBlack":true,
            "kingSideWhite":true,
            "queenSideWhite":true,
            "id":6,
            "className":"Pawn"
         },
         {  
            "color":"black",
            "moves":[  
               {  
                  "x":3,
                  "y":2
               },
               {  
                  "x":3,
                  "y":3
               }
            ],
            "movesRules":[  
               {  
                  "x":0,
                  "y":1
               },
               {  
                  "x":0,
                  "y":2
               }
            ],
            "coordX":3,
            "coordY":1,
            "currentMove":{  
               "x":3,
               "y":3
            },
            "kingSideBlack":true,
            "queenSideBlack":true,
            "kingSideWhite":true,
            "queenSideWhite":true,
            "id":5,
            "className":"Pawn"
         },
         {  
            "color":"black",
            "moves":[  
               {  
                  "x":4,
                  "y":2
               },
               {  
                  "x":4,
                  "y":3
               }
            ],
            "movesRules":[  
               {  
                  "x":0,
                  "y":1
               },
               {  
                  "x":0,
                  "y":2
               }
            ],
            "coordX":4,
            "coordY":1,
            "currentMove":{  
               "x":4,
               "y":3
            },
            "kingSideBlack":true,
            "queenSideBlack":true,
            "kingSideWhite":true,
            "queenSideWhite":true,
            "id":4,
            "className":"Pawn"
         },
         {  
            "color":"black",
            "moves":[  
               {  
                  "x":5,
                  "y":2
               },
               {  
                  "x":5,
                  "y":3
               }
            ],
            "movesRules":[  
               {  
                  "x":0,
                  "y":1
               },
               {  
                  "x":0,
                  "y":2
               }
            ],
            "coordX":5,
            "coordY":1,
            "currentMove":{  
               "x":5,
               "y":3
            },
            "kingSideBlack":true,
            "queenSideBlack":true,
            "kingSideWhite":true,
            "queenSideWhite":true,
            "id":3,
            "className":"Pawn"
         },
         {  
            "color":"black",
            "moves":[  
               {  
                  "x":6,
                  "y":2
               },
               {  
                  "x":6,
                  "y":3
               }
            ],
            "movesRules":[  
               {  
                  "x":0,
                  "y":1
               },
               {  
                  "x":0,
                  "y":2
               }
            ],
            "coordX":6,
            "coordY":1,
            "currentMove":{  
               "x":6,
               "y":3
            },
            "kingSideBlack":true,
            "queenSideBlack":true,
            "kingSideWhite":true,
            "queenSideWhite":true,
            "id":2,
            "className":"Pawn"
         },
         {  
            "color":"black",
            "moves":[  
               {  
                  "x":7,
                  "y":2
               },
               {  
                  "x":7,
                  "y":3
               }
            ],
            "movesRules":[  
               {  
                  "x":0,
                  "y":1
               },
               {  
                  "x":0,
                  "y":2
               }
            ],
            "coordX":7,
            "coordY":1,
            "currentMove":{  
               "x":7,
               "y":3
            },
            "kingSideBlack":true,
            "queenSideBlack":true,
            "kingSideWhite":true,
            "queenSideWhite":true,
            "id":1,
            "className":"Pawn"
         }
      ],
      [  
         null,
         null,
         null,
         null,
         null,
         null,
         null,
         null
      ],
      [  
         null,
         null,
         null,
         null,
         null,
         null,
         null,
         null
      ],
      [  
         null,
         null,
         null,
         null,
         null,
         null,
         null,
         null
      ],
      [  
         null,
         null,
         null,
         null,
         null,
         null,
         null,
         null
      ],
      [  
         {  
            "color":"white",
            "moves":[  
               {  
                  "x":0,
                  "y":5
               },
               {  
                  "x":0,
                  "y":4
               }
            ],
            "movesRules":[  
               {  
                  "x":0,
                  "y":-1
               },
               {  
                  "x":0,
                  "y":-2
               }
            ],
            "coordX":0,
            "coordY":6,
            "currentMove":{  
               "x":0,
               "y":4
            },
            "kingSideBlack":true,
            "queenSideBlack":true,
            "kingSideWhite":true,
            "queenSideWhite":true,
            "id":8,
            "className":"Pawn"
         },
         {  
            "color":"white",
            "moves":[  
               {  
                  "x":1,
                  "y":5
               },
               {  
                  "x":1,
                  "y":4
               }
            ],
            "movesRules":[  
               {  
                  "x":0,
                  "y":-1
               },
               {  
                  "x":0,
                  "y":-2
               }
            ],
            "coordX":1,
            "coordY":6,
            "currentMove":{  
               "x":1,
               "y":4
            },
            "kingSideBlack":true,
            "queenSideBlack":true,
            "kingSideWhite":true,
            "queenSideWhite":true,
            "id":7,
            "className":"Pawn"
         },
         {  
            "color":"white",
            "moves":[  
               {  
                  "x":2,
                  "y":5
               },
               {  
                  "x":2,
                  "y":4
               }
            ],
            "movesRules":[  
               {  
                  "x":0,
                  "y":-1
               },
               {  
                  "x":0,
                  "y":-2
               }
            ],
            "coordX":2,
            "coordY":6,
            "currentMove":{  
               "x":2,
               "y":4
            },
            "kingSideBlack":true,
            "queenSideBlack":true,
            "kingSideWhite":true,
            "queenSideWhite":true,
            "id":6,
            "className":"Pawn"
         },
         {  
            "color":"white",
            "moves":[  
               {  
                  "x":3,
                  "y":5
               },
               {  
                  "x":3,
                  "y":4
               }
            ],
            "movesRules":[  
               {  
                  "x":0,
                  "y":-1
               },
               {  
                  "x":0,
                  "y":-2
               }
            ],
            "coordX":3,
            "coordY":6,
            "currentMove":{  
               "x":3,
               "y":4
            },
            "kingSideBlack":true,
            "queenSideBlack":true,
            "kingSideWhite":true,
            "queenSideWhite":true,
            "id":5,
            "className":"Pawn"
         },
         {  
            "color":"white",
            "moves":[  
               {  
                  "x":4,
                  "y":5
               },
               {  
                  "x":4,
                  "y":4
               }
            ],
            "movesRules":[  
               {  
                  "x":0,
                  "y":-1
               },
               {  
                  "x":0,
                  "y":-2
               }
            ],
            "coordX":4,
            "coordY":6,
            "currentMove":{  
               "x":4,
               "y":4
            },
            "kingSideBlack":true,
            "queenSideBlack":true,
            "kingSideWhite":true,
            "queenSideWhite":true,
            "id":4,
            "className":"Pawn"
         },
         {  
            "color":"white",
            "moves":[  
               {  
                  "x":5,
                  "y":5
               },
               {  
                  "x":5,
                  "y":4
               }
            ],
            "movesRules":[  
               {  
                  "x":0,
                  "y":-1
               },
               {  
                  "x":0,
                  "y":-2
               }
            ],
            "coordX":5,
            "coordY":6,
            "currentMove":{  
               "x":5,
               "y":4
            },
            "kingSideBlack":true,
            "queenSideBlack":true,
            "kingSideWhite":true,
            "queenSideWhite":true,
            "id":3,
            "className":"Pawn"
         },
         {  
            "color":"white",
            "moves":[  
               {  
                  "x":6,
                  "y":5
               },
               {  
                  "x":6,
                  "y":4
               }
            ],
            "movesRules":[  
               {  
                  "x":0,
                  "y":-1
               },
               {  
                  "x":0,
                  "y":-2
               }
            ],
            "coordX":6,
            "coordY":6,
            "currentMove":{  
               "x":6,
               "y":4
            },
            "kingSideBlack":true,
            "queenSideBlack":true,
            "kingSideWhite":true,
            "queenSideWhite":true,
            "id":2,
            "className":"Pawn"
         },
         {  
            "color":"white",
            "moves":[  
               {  
                  "x":7,
                  "y":5
               },
               {  
                  "x":7,
                  "y":4
               }
            ],
            "movesRules":[  
               {  
                  "x":0,
                  "y":-1
               },
               {  
                  "x":0,
                  "y":-2
               }
            ],
            "coordX":7,
            "coordY":6,
            "currentMove":{  
               "x":7,
               "y":4
            },
            "kingSideBlack":true,
            "queenSideBlack":true,
            "kingSideWhite":true,
            "queenSideWhite":true,
            "id":1,
            "className":"Pawn"
         }
      ],
      [  
         {  
            "color":"white",
            "moves":[  

            ],
            "movesRules":[  
               {  
                  "x":0,
                  "y":1
               },
               {  
                  "x":0,
                  "y":-1
               },
               {  
                  "x":1,
                  "y":0
               },
               {  
                  "x":-1,
                  "y":0
               }
            ],
            "coordX":0,
            "coordY":7,
            "currentMove":{  
               "x":-1,
               "y":7
            },
            "kingSideBlack":true,
            "queenSideBlack":true,
            "kingSideWhite":true,
            "queenSideWhite":true,
            "id":2,
            "className":"Rook"
         },
         {  
            "color":"white",
            "moves":[  
               {  
                  "x":2,
                  "y":5
               },
               {  
                  "x":0,
                  "y":5
               }
            ],
            "movesRules":[  
               {  
                  "x":1,
                  "y":2
               },
               {  
                  "x":-1,
                  "y":2
               },
               {  
                  "x":1,
                  "y":-2
               },
               {  
                  "x":-1,
                  "y":-2
               },
               {  
                  "x":2,
                  "y":1
               },
               {  
                  "x":-2,
                  "y":1
               },
               {  
                  "x":2,
                  "y":-1
               },
               {  
                  "x":-2,
                  "y":-1
               }
            ],
            "coordX":1,
            "coordY":7,
            "currentMove":{  
               "x":-1,
               "y":6
            },
            "kingSideBlack":true,
            "queenSideBlack":true,
            "kingSideWhite":true,
            "queenSideWhite":true,
            "id":2,
            "className":"Horse"
         },
         {  
            "color":"white",
            "moves":[  

            ],
            "movesRules":[  
               {  
                  "x":1,
                  "y":1
               },
               {  
                  "x":1,
                  "y":-1
               },
               {  
                  "x":-1,
                  "y":1
               },
               {  
                  "x":-1,
                  "y":-1
               }
            ],
            "coordX":2,
            "coordY":7,
            "currentMove":{  
               "x":1,
               "y":6
            },
            "kingSideBlack":true,
            "queenSideBlack":true,
            "kingSideWhite":true,
            "queenSideWhite":true,
            "id":2,
            "className":"Bishop"
         },
         {  
            "color":"white",
            "moves":[  

            ],
            "movesRules":[  
               {  
                  "x":1,
                  "y":1
               },
               {  
                  "x":1,
                  "y":-1
               },
               {  
                  "x":-1,
                  "y":1
               },
               {  
                  "x":-1,
                  "y":-1
               },
               {  
                  "x":0,
                  "y":1
               },
               {  
                  "x":0,
                  "y":-1
               },
               {  
                  "x":1,
                  "y":0
               },
               {  
                  "x":-1,
                  "y":0
               }
            ],
            "coordX":3,
            "coordY":7,
            "currentMove":{  
               "x":2,
               "y":7
            },
            "kingSideBlack":true,
            "queenSideBlack":true,
            "kingSideWhite":true,
            "queenSideWhite":true,
            "id":1,
            "className":"Queen"
         },
         {  
            "color":"white",
            "moves":[  
               {
                  "x":0,
                  "y":7
               }
            ],
            "movesRules":[  
               {  
                  "x":1,
                  "y":1
               },
               {  
                  "x":1,
                  "y":-1
               },
               {  
                  "x":-1,
                  "y":1
               },
               {  
                  "x":-1,
                  "y":-1
               },
               {  
                  "x":0,
                  "y":1
               },
               {  
                  "x":0,
                  "y":-1
               },
               {  
                  "x":1,
                  "y":0
               },
               {  
                  "x":-1,
                  "y":0
               }
            ],
            "coordX":4,
            "coordY":7,
            "currentMove":{  
               "x":3,
               "y":7
            },
            "kingSideBlack":true,
            "queenSideBlack":true,
            "kingSideWhite":true,
            "queenSideWhite":true,
            "id":1,
            "isChess":false,
            "isChessmate":false,
            "isStalemate":false,
            "className":"King"
         },
         {  
            "color":"white",
            "moves":[  
            ],
            "movesRules":[  
               {  
                  "x":1,
                  "y":1
               },
               {  
                  "x":1,
                  "y":-1
               },
               {  
                  "x":-1,
                  "y":1
               },
               {  
                  "x":-1,
                  "y":-1
               }
            ],
            "coordX":5,
            "coordY":7,
            "currentMove":{  
               "x":4,
               "y":6
            },
            "kingSideBlack":true,
            "queenSideBlack":true,
            "kingSideWhite":true,
            "queenSideWhite":true,
            "id":1,
            "className":"Bishop"
         },
         {  
            "color":"white",
            "moves":[  
               {  
                  "x":7,
                  "y":5
               },
               {  
                  "x":5,
                  "y":5
               }
            ],
            "movesRules":[  
               {  
                  "x":1,
                  "y":2
               },
               {  
                  "x":-1,
                  "y":2
               },
               {  
                  "x":1,
                  "y":-2
               },
               {  
                  "x":-1,
                  "y":-2
               },
               {  
                  "x":2,
                  "y":1
               },
               {  
                  "x":-2,
                  "y":1
               },
               {  
                  "x":2,
                  "y":-1
               },
               {  
                  "x":-2,
                  "y":-1
               }
            ],
            "coordX":6,
            "coordY":7,
            "currentMove":{  
               "x":4,
               "y":6
            },
            "kingSideBlack":true,
            "queenSideBlack":true,
            "kingSideWhite":true,
            "queenSideWhite":true,
            "id":1,
            "className":"Horse"
         },
         {  
            "color":"white",
            "moves":[  

            ],
            "movesRules":[  
               {  
                  "x":0,
                  "y":1
               },
               {  
                  "x":0,
                  "y":-1
               },
               {  
                  "x":1,
                  "y":0
               },
               {  
                  "x":-1,
                  "y":0
               }
            ],
            "coordX":7,
            "coordY":7,
            "currentMove":{  
               "x":6,
               "y":7
            },
            "kingSideBlack":true,
            "queenSideBlack":true,
            "kingSideWhite":true,
            "queenSideWhite":true,
            "id":1,
            "className":"Rook"
         }
      ]
   ]
}